<?xml version="1.0" encoding="UTF-8" standalone="no"?>
<!-- Created with Inkscape (http://www.inkscape.org/) -->

<svg
   width="64"
   height="64"
   viewBox="0 0 64 63.999997"
   version="1.1"
   id="SVGRoot"
   sodipodi:docname="question.svg"
   inkscape:version="1.2.2 (b0a8486541, 2022-12-01)"
   xmlns:inkscape="http://www.inkscape.org/namespaces/inkscape"
   xmlns:sodipodi="http://sodipodi.sourceforge.net/DTD/sodipodi-0.dtd"
   xmlns="http://www.w3.org/2000/svg"
   xmlns:svg="http://www.w3.org/2000/svg">
  <sodipodi:namedview
     id="namedview21"
     pagecolor="#808080"
     bordercolor="#000000"
     borderopacity="0.25"
     inkscape:showpageshadow="2"
     inkscape:pageopacity="0"
     inkscape:pagecheckerboard="true"
     inkscape:deskcolor="#d1d1d1"
     inkscape:document-units="px"
     showgrid="true"
     inkscape:zoom="5.6568542"
     inkscape:cx="34.029514"
     inkscape:cy="53.386562"
     inkscape:window-width="1920"
     inkscape:window-height="1019"
     inkscape:window-x="0"
     inkscape:window-y="24"
     inkscape:window-maximized="1"
     inkscape:current-layer="layer1">
    <inkscape:grid
       type="xygrid"
       id="grid27"
       empspacing="4"
       originx="0"
       originy="0" />
  </sodipodi:namedview>
  <defs
     id="defs16" />
  <g
     inkscape:label="Layer 1"
     inkscape:groupmode="layer"
     id="layer1">
    <path
       style="display:none;fill:none;fill-opacity:1;stroke:#80c0ff;stroke-width:6;stroke-linecap:round;stroke-linejoin:round;stroke-dasharray:none;stroke-opacity:1"
       d="M 32,18 V 36.000295"
       id="path3145"
       sodipodi:nodetypes="cc" />
    <circle
       style="fill:#80c0ff;fill-opacity:1;stroke:none;stroke-width:2.787;stroke-linecap:round;stroke-linejoin:round;stroke-dasharray:none;stroke-opacity:1"
       id="path3199"
       cx="32"
       cy="51.000015"
       r="3" />
    <circle
       style="fill:none;stroke:#80c0ff;stroke-width:6;stroke-linecap:round;stroke-linejoin:round;stroke-opacity:1"
       id="path5168"
       cx="32"
       cy="32"
       r="29" />
    <path
       style="fill:none;fill-opacity:1;stroke:#80c0ff;stroke-width:6;stroke-linecap:round;stroke-linejoin:round;stroke-opacity:1"
       d="m 19.999406,21.001051 c 0,0 -0.166379,-8.001051 11.966884,-8.001051 12.133262,0 12.033683,6.87063 12.033683,8.001051 0,4.076159 -4.000095,5.999685 -4.000095,5.999685 -2.556974,1.476157 -8.000188,5.171301 -8.000188,7.999579 V 41"
       id="path6462"
       sodipodi:nodetypes="czsssc" />
  </g>
</svg>
