[gd_resource type="Resource" load_steps=2 format=3]

[ext_resource type="Script" path="res://modloader/Floor.gd" id="1_wbf6q"]

[resource]
script = ExtResource("1_wbf6q")
stairs = &"default:sand"
ceiling = &"default:wood"
wall = &"default:bricks"
