[gd_resource type="Resource" load_steps=2 format=3]

[ext_resource type="Script" path="res://modloader/Floor.gd" id="1_m8ata"]

[resource]
script = ExtResource("1_m8ata")
stairs = &"default:sand"
ceiling = &"default:sand"
wall = &"default:sand"
